{
  "results": [
    {
      "id": 128149,
      "adult": false
    },
    {
      "id": 151623,
      "adult": null
    },
    {
      "id": 204098,
      "adult": false
    },
    {
      "id": 204100,
      "adult": false
    },
    {
      "id": 2907,
      "adult": false
    },
    {
      "id": 9800,
      "adult": false
    },
    {
      "id": 204101,
      "adult": false
    },
    {
      "id": 13436,
      "adult": false
    },
    {
      "id": 60304,
      "adult": false
    },
    {
      "id": 37137,
      "adult": false
    },
    {
      "id": 72710,
      "adult": false
    },
    {
      "id": 928,
      "adult": false
    },
    {
      "id": 41587,
      "adult": false
    },
    {
      "id": 11069,
      "adult": false
    },
    {
      "id": 139567,
      "adult": false
    },
    {
      "id": 204102,
      "adult": null
    },
    {
      "id": 14069,
      "adult": false
    },
    {
      "id": 6470,
      "adult": false
    },
    {
      "id": 77953,
      "adult": false
    },
    {
      "id": 4977,
      "adult": false
    },
    {
      "id": 9671,
      "adult": false
    },
    {
      "id": 11592,
      "adult": false
    },
    {
      "id": 15144,
      "adult": false
    },
    {
      "id": 251,
      "adult": false
    },
    {
      "id": 9291,
      "adult": false
    },
    {
      "id": 114049,
      "adult": false
    },
    {
      "id": 39544,
      "adult": false
    },
    {
      "id": 13194,
      "adult": false
    },
    {
      "id": 84175,
      "adult": false
    },
    {
      "id": 93828,
      "adult": false
    },
    {
      "id": 813,
      "adult": false
    },
    {
      "id": 15571,
      "adult": false
    },
    {
      "id": 204104,
      "adult": false
    },
    {
      "id": 204105,
      "adult": false
    },
    {
      "id": 144416,
      "adult": false
    },
    {
      "id": 46541,
      "adult": false
    },
    {
      "id": 75780,
      "adult": false
    },
    {
      "id": 204107,
      "adult": false
    },
    {
      "id": 28499,
      "adult": false
    },
    {
      "id": 135397,
      "adult": false
    },
    {
      "id": 82245,
      "adult": false
    },
    {
      "id": 204108,
      "adult": false
    },
    {
      "id": 204109,
      "adult": false
    },
    {
      "id": 163357,
      "adult": false
    },
    {
      "id": 64893,
      "adult": false
    },
    {
      "id": 64547,
      "adult": false
    },
    {
      "id": 201793,
      "adult": false
    },
    {
      "id": 204112,
      "adult": true
    },
    {
      "id": 204113,
      "adult": false
    },
    {
      "id": 144340,
      "adult": false
    },
    {
      "id": 96051,
      "adult": false
    },
    {
      "id": 204114,
      "adult": false
    },
    {
      "id": 204115,
      "adult": false
    },
    {
      "id": 143414,
      "adult": false
    },
    {
      "id": 204116,
      "adult": false
    },
    {
      "id": 203910,
      "adult": false
    },
    {
      "id": 94701,
      "adult": true
    },
    {
      "id": 27465,
      "adult": false
    },
    {
      "id": 204117,
      "adult": false
    },
    {
      "id": 204119,
      "adult": false
    },
    {
      "id": 204122,
      "adult": false
    },
    {
      "id": 204123,
      "adult": false
    },
    {
      "id": 204125,
      "adult": false
    },
    {
      "id": 204128,
      "adult": false
    },
    {
      "id": 95775,
      "adult": false
    },
    {
      "id": 204130,
      "adult": false
    },
    {
      "id": 149529,
      "adult": false
    },
    {
      "id": 204131,
      "adult": false
    },
    {
      "id": 38732,
      "adult": false
    },
    {
      "id": 39069,
      "adult": false
    },
    {
      "id": 204134,
      "adult": false
    },
    {
      "id": 204136,
      "adult": false
    },
    {
      "id": 204137,
      "adult": false
    },
    {
      "id": 204138,
      "adult": false
    },
    {
      "id": 204139,
      "adult": false
    },
    {
      "id": 204142,
      "adult": false
    },
    {
      "id": 204143,
      "adult": false
    },
    {
      "id": 204144,
      "adult": false
    },
    {
      "id": 87500,
      "adult": false
    },
    {
      "id": 204146,
      "adult": false
    },
    {
      "id": 78046,
      "adult": false
    },
    {
      "id": 204149,
      "adult": false
    },
    {
      "id": 188325,
      "adult": false
    },
    {
      "id": 204151,
      "adult": false
    },
    {
      "id": 204152,
      "adult": false
    },
    {
      "id": 204154,
      "adult": false
    },
    {
      "id": 204155,
      "adult": false
    },
    {
      "id": 204156,
      "adult": false
    },
    {
      "id": 204159,
      "adult": false
    },
    {
      "id": 204160,
      "adult": false
    },
    {
      "id": 204161,
      "adult": false
    },
    {
      "id": 204162,
      "adult": false
    },
    {
      "id": 204163,
      "adult": false
    },
    {
      "id": 204164,
      "adult": false
    },
    {
      "id": 204165,
      "adult": false
    },
    {
      "id": 204166,
      "adult": false
    },
    {
      "id": 204167,
      "adult": false
    },
    {
      "id": 204169,
      "adult": false
    },
    {
      "id": 113452,
      "adult": false
    },
    {
      "id": 204170,
      "adult": false
    }
  ],
  "page": 1,
  "total_pages": 47,
  "total_results": 4645
}
