{
  "results": [
    {
      "id": 205372,
      "adult": false
    },
    {
      "id": 41845,
      "adult": false
    },
    {
      "id": 205370,
      "adult": false
    },
    {
      "id": 190787,
      "adult": false
    },
    {
      "id": 84168,
      "adult": false
    },
    {
      "id": 170687,
      "adult": false
    },
    {
      "id": 188598,
      "adult": false
    },
    {
      "id": 97132,
      "adult": false
    },
    {
      "id": 205373,
      "adult": false
    },
    {
      "id": 205369,
      "adult": false
    },
    {
      "id": 137315,
      "adult": false
    },
    {
      "id": 205374,
      "adult": false
    },
    {
      "id": 205375,
      "adult": false
    },
    {
      "id": 109428,
      "adult": false
    },
    {
      "id": 114941,
      "adult": false
    },
    {
      "id": 205377,
      "adult": false
    },
    {
      "id": 12468,
      "adult": false
    },
    {
      "id": 41939,
      "adult": false
    },
    {
      "id": 10614,
      "adult": false
    },
    {
      "id": 6950,
      "adult": false
    },
    {
      "id": 864,
      "adult": false
    },
    {
      "id": 205378,
      "adult": false
    },
    {
      "id": 26838,
      "adult": false
    },
    {
      "id": 205340,
      "adult": false
    },
    {
      "id": 50321,
      "adult": false
    },
    {
      "id": 88273,
      "adult": false
    },
    {
      "id": 565,
      "adult": false
    },
    {
      "id": 205331,
      "adult": false
    },
    {
      "id": 185671,
      "adult": false
    },
    {
      "id": 10320,
      "adult": false
    },
    {
      "id": 38985,
      "adult": false
    },
    {
      "id": 11690,
      "adult": false
    },
    {
      "id": 9847,
      "adult": false
    },
    {
      "id": 1970,
      "adult": false
    },
    {
      "id": 19904,
      "adult": false
    },
    {
      "id": 9485,
      "adult": false
    },
    {
      "id": 29400,
      "adult": false
    },
    {
      "id": 122536,
      "adult": false
    },
    {
      "id": 645,
      "adult": false
    },
    {
      "id": 205380,
      "adult": false
    },
    {
      "id": 1570,
      "adult": false
    },
    {
      "id": 89151,
      "adult": false
    },
    {
      "id": 205381,
      "adult": false
    },
    {
      "id": 108043,
      "adult": false
    },
    {
      "id": 131292,
      "adult": false
    },
    {
      "id": 9361,
      "adult": false
    },
    {
      "id": 24382,
      "adult": false
    },
    {
      "id": 153392,
      "adult": false
    },
    {
      "id": 76152,
      "adult": false
    },
    {
      "id": 82695,
      "adult": false
    },
    {
      "id": 75116,
      "adult": false
    },
    {
      "id": 16911,
      "adult": false
    },
    {
      "id": 18122,
      "adult": false
    },
    {
      "id": 9682,
      "adult": false
    },
    {
      "id": 53829,
      "adult": false
    },
    {
      "id": 130951,
      "adult": false
    },
    {
      "id": 40047,
      "adult": false
    },
    {
      "id": 75046,
      "adult": false
    },
    {
      "id": 28295,
      "adult": false
    },
    {
      "id": 205382,
      "adult": false
    },
    {
      "id": 116186,
      "adult": false
    },
    {
      "id": 66953,
      "adult": false
    },
    {
      "id": 51041,
      "adult": false
    },
    {
      "id": 12470,
      "adult": false
    },
    {
      "id": 163902,
      "adult": false
    },
    {
      "id": 139777,
      "adult": false
    },
    {
      "id": 1730,
      "adult": false
    },
    {
      "id": 203461,
      "adult": false
    },
    {
      "id": 203400,
      "adult": false
    },
    {
      "id": 203407,
      "adult": false
    },
    {
      "id": 9965,
      "adult": false
    },
    {
      "id": 203444,
      "adult": false
    },
    {
      "id": 203390,
      "adult": false
    },
    {
      "id": 203182,
      "adult": false
    },
    {
      "id": 205383,
      "adult": false
    },
    {
      "id": 205384,
      "adult": false
    },
    {
      "id": 205386,
      "adult": false
    },
    {
      "id": 205387,
      "adult": false
    },
    {
      "id": 205389,
      "adult": false
    },
    {
      "id": 124754,
      "adult": false
    },
    {
      "id": 157243,
      "adult": false
    },
    {
      "id": 169972,
      "adult": false
    },
    {
      "id": 74275,
      "adult": false
    },
    {
      "id": 85131,
      "adult": false
    },
    {
      "id": 116811,
      "adult": false
    },
    {
      "id": 205391,
      "adult": false
    },
    {
      "id": 67255,
      "adult": false
    },
    {
      "id": 205392,
      "adult": false
    },
    {
      "id": 26959,
      "adult": false
    },
    {
      "id": 205394,
      "adult": false
    },
    {
      "id": 196750,
      "adult": false
    },
    {
      "id": 58004,
      "adult": false
    },
    {
      "id": 205396,
      "adult": false
    },
    {
      "id": 114291,
      "adult": false
    },
    {
      "id": 24212,
      "adult": false
    },
    {
      "id": 205397,
      "adult": false
    },
    {
      "id": 52455,
      "adult": false
    },
    {
      "id": 205398,
      "adult": false
    },
    {
      "id": 37744,
      "adult": false
    },
    {
      "id": 204050,
      "adult": false
    }
  ],
  "page": 1,
  "total_pages": 8,
  "total_results": 773
}
