{
  "results": [
    {
      "id": 163536,
      "adult": false
    },
    {
      "id": 204171,
      "adult": false
    },
    {
      "id": 204172,
      "adult": false
    },
    {
      "id": 204173,
      "adult": false
    },
    {
      "id": 204175,
      "adult": false
    },
    {
      "id": 204176,
      "adult": false
    },
    {
      "id": 38800,
      "adult": false
    },
    {
      "id": 204178,
      "adult": false
    },
    {
      "id": 48676,
      "adult": false
    },
    {
      "id": 204179,
      "adult": false
    },
    {
      "id": 148782,
      "adult": false
    },
    {
      "id": 204181,
      "adult": false
    },
    {
      "id": 204182,
      "adult": false
    },
    {
      "id": 109410,
      "adult": false
    },
    {
      "id": 204183,
      "adult": false
    },
    {
      "id": 204185,
      "adult": false
    },
    {
      "id": 198,
      "adult": false
    },
    {
      "id": 190754,
      "adult": false
    },
    {
      "id": 17645,
      "adult": false
    },
    {
      "id": 627,
      "adult": false
    },
    {
      "id": 204186,
      "adult": false
    },
    {
      "id": 204187,
      "adult": false
    },
    {
      "id": 204188,
      "adult": false
    },
    {
      "id": 204189,
      "adult": false
    },
    {
      "id": 204190,
      "adult": false
    },
    {
      "id": 97367,
      "adult": false
    },
    {
      "id": 20766,
      "adult": false
    },
    {
      "id": 204192,
      "adult": false
    },
    {
      "id": 68722,
      "adult": false
    },
    {
      "id": 103731,
      "adult": false
    },
    {
      "id": 151001,
      "adult": false
    },
    {
      "id": 204194,
      "adult": false
    },
    {
      "id": 10999,
      "adult": false
    },
    {
      "id": 204196,
      "adult": false
    },
    {
      "id": 204198,
      "adult": false
    },
    {
      "id": 198889,
      "adult": false
    },
    {
      "id": 204199,
      "adult": false
    },
    {
      "id": 189151,
      "adult": false
    },
    {
      "id": 34133,
      "adult": false
    },
    {
      "id": 108209,
      "adult": false
    },
    {
      "id": 307,
      "adult": false
    },
    {
      "id": 59797,
      "adult": false
    },
    {
      "id": 69760,
      "adult": false
    },
    {
      "id": 69762,
      "adult": false
    },
    {
      "id": 37165,
      "adult": false
    },
    {
      "id": 69759,
      "adult": false
    },
    {
      "id": 69756,
      "adult": false
    },
    {
      "id": 100209,
      "adult": false
    },
    {
      "id": 145186,
      "adult": false
    },
    {
      "id": 204202,
      "adult": false
    },
    {
      "id": 4437,
      "adult": false
    },
    {
      "id": 204203,
      "adult": false
    },
    {
      "id": 204204,
      "adult": false
    },
    {
      "id": 31022,
      "adult": false
    },
    {
      "id": 2252,
      "adult": false
    },
    {
      "id": 42302,
      "adult": false
    },
    {
      "id": 204205,
      "adult": false
    },
    {
      "id": 76312,
      "adult": false
    },
    {
      "id": 330,
      "adult": false
    },
    {
      "id": 204207,
      "adult": false
    },
    {
      "id": 204080,
      "adult": false
    },
    {
      "id": 148686,
      "adult": false
    },
    {
      "id": 331,
      "adult": false
    },
    {
      "id": 204208,
      "adult": false
    },
    {
      "id": 136418,
      "adult": false
    },
    {
      "id": 204209,
      "adult": false
    },
    {
      "id": 202520,
      "adult": false
    },
    {
      "id": 16050,
      "adult": false
    },
    {
      "id": 69537,
      "adult": false
    },
    {
      "id": 204211,
      "adult": false
    },
    {
      "id": 24212,
      "adult": false
    },
    {
      "id": 8436,
      "adult": false
    },
    {
      "id": 204213,
      "adult": false
    },
    {
      "id": 204216,
      "adult": false
    },
    {
      "id": 176160,
      "adult": false
    },
    {
      "id": 202436,
      "adult": false
    },
    {
      "id": 204217,
      "adult": false
    },
    {
      "id": 10366,
      "adult": false
    },
    {
      "id": 161908,
      "adult": false
    },
    {
      "id": 54666,
      "adult": false
    },
    {
      "id": 204219,
      "adult": false
    },
    {
      "id": 204221,
      "adult": false
    },
    {
      "id": 204222,
      "adult": false
    },
    {
      "id": 204223,
      "adult": false
    },
    {
      "id": 204224,
      "adult": false
    },
    {
      "id": 204225,
      "adult": false
    },
    {
      "id": 117263,
      "adult": false
    },
    {
      "id": 10750,
      "adult": false
    },
    {
      "id": 57297,
      "adult": false
    },
    {
      "id": 84969,
      "adult": false
    },
    {
      "id": 13820,
      "adult": false
    },
    {
      "id": 62752,
      "adult": true
    },
    {
      "id": 204227,
      "adult": false
    },
    {
      "id": 60307,
      "adult": false
    },
    {
      "id": 103663,
      "adult": false
    },
    {
      "id": 33221,
      "adult": false
    },
    {
      "id": 78084,
      "adult": false
    },
    {
      "id": 50628,
      "adult": false
    },
    {
      "id": 14614,
      "adult": false
    },
    {
      "id": 204228,
      "adult": false
    }
  ],
  "page": 2,
  "total_pages": 47,
  "total_results": 4648
}
