{
  "results": [
    {
      "id": 1303652,
      "adult": false
    },
    {
      "id": 1238933,
      "adult": false
    },
    {
      "id": 1303653,
      "adult": false
    },
    {
      "id": 1303654,
      "adult": false
    },
    {
      "id": 1303655,
      "adult": false
    },
    {
      "id": 1303656,
      "adult": false
    },
    {
      "id": 1303657,
      "adult": false
    },
    {
      "id": 1303658,
      "adult": false
    },
    {
      "id": 1303659,
      "adult": false
    },
    {
      "id": 1303660,
      "adult": false
    },
    {
      "id": 1303661,
      "adult": false
    },
    {
      "id": 1303662,
      "adult": false
    },
    {
      "id": 1303663,
      "adult": false
    },
    {
      "id": 1303664,
      "adult": false
    },
    {
      "id": 1303665,
      "adult": false
    },
    {
      "id": 1303666,
      "adult": false
    },
    {
      "id": 1303667,
      "adult": false
    },
    {
      "id": 1303668,
      "adult": false
    },
    {
      "id": 1303669,
      "adult": false
    },
    {
      "id": 1303670,
      "adult": false
    },
    {
      "id": 1303671,
      "adult": false
    },
    {
      "id": 1303672,
      "adult": false
    },
    {
      "id": 1303673,
      "adult": false
    },
    {
      "id": 1303674,
      "adult": false
    },
    {
      "id": 1303675,
      "adult": false
    },
    {
      "id": 1303676,
      "adult": false
    },
    {
      "id": 1303677,
      "adult": false
    },
    {
      "id": 1303678,
      "adult": false
    },
    {
      "id": 1303679,
      "adult": false
    },
    {
      "id": 1303680,
      "adult": false
    },
    {
      "id": 1303681,
      "adult": false
    },
    {
      "id": 1253797,
      "adult": false
    },
    {
      "id": 1303682,
      "adult": false
    },
    {
      "id": 1303683,
      "adult": false
    },
    {
      "id": 1303032,
      "adult": false
    },
    {
      "id": 1303684,
      "adult": false
    },
    {
      "id": 1303685,
      "adult": false
    },
    {
      "id": 1303686,
      "adult": false
    },
    {
      "id": 1303687,
      "adult": false
    },
    {
      "id": 1303688,
      "adult": false
    },
    {
      "id": 1303689,
      "adult": false
    },
    {
      "id": 1303690,
      "adult": false
    },
    {
      "id": 1303691,
      "adult": false
    },
    {
      "id": 1303692,
      "adult": false
    },
    {
      "id": 1303693,
      "adult": false
    },
    {
      "id": 1303694,
      "adult": false
    },
    {
      "id": 560038,
      "adult": false
    },
    {
      "id": 1059577,
      "adult": false
    },
    {
      "id": 1303695,
      "adult": false
    },
    {
      "id": 1303696,
      "adult": false
    },
    {
      "id": 1303697,
      "adult": false
    },
    {
      "id": 1303698,
      "adult": false
    },
    {
      "id": 1303699,
      "adult": false
    },
    {
      "id": 1096643,
      "adult": false
    },
    {
      "id": 1303700,
      "adult": false
    },
    {
      "id": 1303701,
      "adult": false
    },
    {
      "id": 1303702,
      "adult": false
    },
    {
      "id": 1303703,
      "adult": false
    },
    {
      "id": 1303704,
      "adult": false
    },
    {
      "id": 1303705,
      "adult": false
    },
    {
      "id": 1303706,
      "adult": false
    },
    {
      "id": 1303707,
      "adult": false
    },
    {
      "id": 1303708,
      "adult": false
    },
    {
      "id": 1303709,
      "adult": false
    },
    {
      "id": 1303710,
      "adult": false
    },
    {
      "id": 1303711,
      "adult": false
    },
    {
      "id": 1303712,
      "adult": false
    },
    {
      "id": 1303713,
      "adult": false
    },
    {
      "id": 1303714,
      "adult": false
    },
    {
      "id": 1303715,
      "adult": false
    },
    {
      "id": 1303716,
      "adult": false
    },
    {
      "id": 1303717,
      "adult": false
    },
    {
      "id": 1091510,
      "adult": false
    },
    {
      "id": 951286,
      "adult": false
    },
    {
      "id": 1142146,
      "adult": false
    },
    {
      "id": 559065,
      "adult": false
    },
    {
      "id": 1303718,
      "adult": false
    },
    {
      "id": 1303719,
      "adult": false
    },
    {
      "id": 1303720,
      "adult": false
    },
    {
      "id": 1303721,
      "adult": false
    },
    {
      "id": 1303722,
      "adult": false
    },
    {
      "id": 60561,
      "adult": false
    },
    {
      "id": 1303723,
      "adult": false
    },
    {
      "id": 1303724,
      "adult": false
    },
    {
      "id": 1303725,
      "adult": false
    },
    {
      "id": 1303726,
      "adult": false
    },
    {
      "id": 1303727,
      "adult": false
    },
    {
      "id": 1303728,
      "adult": false
    },
    {
      "id": 1303729,
      "adult": false
    },
    {
      "id": 1303730,
      "adult": false
    },
    {
      "id": 1303731,
      "adult": false
    },
    {
      "id": 1303732,
      "adult": false
    },
    {
      "id": 1303733,
      "adult": false
    },
    {
      "id": 1303734,
      "adult": false
    },
    {
      "id": 1303735,
      "adult": false
    },
    {
      "id": 1303736,
      "adult": false
    },
    {
      "id": 1303737,
      "adult": false
    },
    {
      "id": 1303738,
      "adult": false
    },
    {
      "id": 1303739,
      "adult": false
    },
    {
      "id": 1303740,
      "adult": false
    }
  ],
  "page": 1,
  "total_pages": 6,
  "total_results": 555
}
